<svg xmlns="http://www.w3.org/2000/svg" xml:space="preserve" width="884.8" height="956.3" fill-rule="evenodd" clip-rule="evenodd" image-rendering="optimizeQuality" shape-rendering="geometricPrecision" text-rendering="geometricPrecision" viewBox="0 0 13064 14121">
  <style>
    path {
      fill: #ffffff;
    }
  </style>
  <path d="m8373 9634 1 2c0-1-2-1-1-2zm756-7560h-227v355c0 107 73 180 170 203 0 41-7 72-9 109-11 197-54 477-62 661-2 39-9 71-9 113h-218c6 27 32 72 44 98 51 105 81 210 104 331 3 18 5 40 10 61 60 232 265 481 401 681l194 311c62 116 65 164 64 300 0 30 5 38 5 66 2 116 0 225 19 340 12 71 28 161 91 202 39 26 64 20 122 25 85 7 69 136 75 213l29 547c1 48 1 94 5 142l14 274c13 112 32 112 100 188 16 18 42 70 52 95 59 167 48 320-8 486a1343 1343 0 0 1-140 289c-8 15-17 29-27 44l-291 366c-40 51-225 250-276 301l-217 217c-26 26-50 45-76 71a7264 7264 0 0 1-470 395c-38 29-52 28-102 44-24 7-90 30-114 32l544-434c12-9 18-18 29-28l62-56c23-17 38-35 58-55 22-21 40-35 62-57 51-50 221-217 257-262l189-212 26-31c64-71 128-146 186-221 104-136 279-415 279-647 0-101-23-233-77-297-62-73-114-99-113-223l-16-319c-7-46-4-109-7-158-5-84-18-235-19-317-1-47-2-116-8-157-3-23-4-149-8-157-8-13-83-1-140-31-150-77-157-353-156-515 0-33-5-45-5-75 0-60 7-195-9-241-56-153-152-293-246-426-147-207-332-440-402-684-15-51-21-130-45-210-24-83-58-169-94-241-77-152-173-295-284-420-9-10-13-12-20-23-34-44-186-199-229-235l-44-40c-11-10-13-10-24-19l-226-190-48-37a6237 6237 0 0 0-490-351l-401-264c-351-234-708-456-1030-729-38-32-108-101-136-119-14 22-39 44-60 62l-111 97c-15 13-30 22-45 36-45 40-95 75-143 111l-290 207c-35 24-68 44-101 69-32 24-67 43-100 65l-302 199c-159 105-354 223-504 332l-338 243c-80 60-234 179-303 245l-149 140c-14 14-32 25-44 41-26 32-52 54-81 84-10 11-10 13-19 24l-21 21-149 187a1575 1575 0 0 0-286 630c-5 26-7 47-13 73-5 24-13 45-20 64-60 159-147 289-239 427l-137 194c-58 83-114 165-164 252-31 54-62 112-84 171-18 47-20 255-20 316 0 173-3 496-200 546-58 15-96-13-98 30-1 18 1 23-2 40l-49 953c0 33-6 46-5 80 2 202-109 182-161 340a681 681 0 0 0 10 411c38 113 95 224 160 322 71 107 133 174 209 268 36 45 72 88 111 130 39 41 73 87 114 127l116 125c54 65 228 227 300 296l94 85c41 42 116 102 163 140l67 55 66 53c43 35 312 241 353 251-202-301-424-891-512-1203-62-222-119-453-160-700-99-600-130-1329 147-1886l33-61c59-102 138-216 228-288 10-8 14-14 24-23 207-175 467-270 764-270h95c0-33-49-253-56-295-26-154-49-313-48-476 0-27-5-60-3-77 4-28 3-59 3-88a1389 1389 0 0 1 45-304 819 819 0 0 1 220-389c18-18 31-26 48-43 29-29 60-56 92-82a3144 3144 0 0 1 148-112c88-60 177-121 269-176 178-107 522-317 655-435a1052 1052 0 0 0 276-387c86-191 134-395 191-597 6-20 16-54 16-74h10c1 67 131 488 159 555l88 200 26 45c25 46 55 89 87 130 123 150 239 219 395 323 270 181 571 329 817 544 128 111 221 200 293 355 151 325 98 845 27 1195-10 50-35 142-35 187 145 0 293 9 422 46 138 39 266 94 378 179 125 95 228 216 306 352 11 19 21 40 34 60 7 13 8 19 14 33l45 97c35 88 66 185 88 285 36 167 55 324 69 494l5 184c0 90-10 178-10 265 1 83-15 172-23 255-29 305-101 636-183 923-20 73-40 143-63 211l-70 208c-67 201-154 391-248 579l-98 181c-28 52-18 39-82 55-283 71-568 106-868 106l-449-10c-161-8-452-42-606-64-58-9-113-18-169-25-58-8-283-52-330-52 15 20 89 55 114 70l59 35 307 165 60 30 161 76 33 14c336 161 793 295 1165 338 125 14 270 23 407 23 733 0 1345-299 1754-637 53-44 111-81 167-121 69-50 144-99 219-140l384-197c189-90 486-188 695-250 18-5 39-10 55-21-91-21-277-42-378-47-115-6-234-5-350-5-16 0-18 4-33 5 0-108-35-227-72-301-27-54-57-98-95-142-35-40-23-40-26-114-3-53-14-117-15-171l-39-527c-4-21-7-63-8-82-1-33-2-56-5-90l-94-1228c32-17 56-40 81-65 76-76 136-186 136-309v-633c-357 0-288 21-299-60-2-18-4-55-7-73l-6-75c-5-110-18-220-23-330l-19-218c-3-38-2-74-8-115-3-21-4-52-6-70l-5-75c-1-52-9-96-9-151 95-22 193-132 193-250v-355c0-23-73-14-113-14h-128c-6-25-8-78-9-108-1-33-9-77-10-109-1-37-5-76-8-109-10-87-33-513-44-557 47-23 68-10 122-77 32-38 48-86 48-155v-326h-212c0-84-12-163-19-246-1-14 1-27-1-41l-32-393c-6-79-12-250-29-321-29-115-93-212-154-309l-30-46c-36-54-47-115-52-184-9-161-35-315-73-470-5-20-15-47-16-64-18 13-33 99-37 119l-45 267c-27 206 8 224-123 420a800 800 0 0 0-129 268c-17 67-24 204-31 282-7 92-22 191-27 284-3 48-9 97-14 142-8 74-24 224-24 292z"/>
  <path d="M5084 7706c0 129 8 226 65 337a709 709 0 0 0 1051 273 706 706 0 0 0 88-1067l-96-79c-69-51-155-88-240-109a712 712 0 0 0-796 372c-38 71-72 194-72 273zm-2755 3109v1323c0 22 11 33 33 33h246c23 0 33-16 33-37l-4-549c-1-28-5-46-5-80 0-78-10-170-10-246 12 9 31 62 37 77 61 147 147 320 220 465 42 84 15 63 258 63 23 0 70-111 85-142l38-75 160-351c5-14 9-29 20-37l-6 165c-4 24-4 50-4 81 1 35-5 49-5 80l-4 549c0 17 13 37 28 37h251c22 0 33-11 33-33v-1323c0-22-11-33-33-33h-279c-36 0-51 49-65 77-16 34-32 61-49 93l-23 48-49 93-25 45-90 194-44 98-21 50c-7 17-14 40-26 49l-175-388-24-42-23-47c-16-32-30-64-49-94-31-51-74-176-107-176h-289c-22 0-33 11-33 33zm2547 5v1309c0 17 4 26 10 38 46 10 210 4 269 4 22 0 33-11 33-33l-19-879c15 12 63 134 73 155l204 424c8 16 12 26 35 26 239 0 209 21 252-64 65-131 157-326 217-464 8-18 25-68 36-77l-5 175c-10 92-13 460-13 539v161c0 17 13 37 28 37h260c15 0 23-17 23-33v-1323c0-22-11-33-33-33h-278c-25 0-30 13-39 28l-24 46-193 375c-17 35-125 275-127 298l-137-293c-47-106-135-261-192-375l-24-47c-9-17-15-32-39-32h-284c-22 0-33 16-33 38zm4602-5v1323c0 16 9 33 24 33h260c42 0 28-136 28-189 0-58 4-130-3-180s-2-129-6-179l-5-132c-1-21-4-20-5-43-1-28-2-54-5-84-3-21-9-63-9-86l8 11 8 16 67 150c111 219 161 301 285 509l99 165c12 19 19 42 48 42h274c15 0 24-17 24-33v-1323c0-22-11-33-33-33h-246c-23 0-33 16-33 38v448c5 45 1 95 5 142l18 275c-10-8-110-221-116-233l-153-287c-49-94-122-212-173-309l-17-30c-12-21-15-44-46-44h-265c-22 0-33 11-33 33zm-1271 1063h-179v-803c93 0 238-11 312 19 16 6 20 8 33 18 59 44 80 107 80 195v335c0 171-75 236-246 236zm-496-1039v1276c0 24 5 56 28 56h525c78 0 159-17 217-38a407 407 0 0 0 214-168c51-82 79-199 79-304v-364c0-75-16-164-38-217-77-194-240-298-477-298h-520c-23 0-28 33-28 57zm4290-9v1294c0 21 9 47 29 47h255c22 0 33-11 33-33v-519h430v505c0 21 9 47 28 47h255c22 0 33-11 33-33v-1323c0-22-11-33-33-33h-255c-19 0-28 26-28 48v496h-430v-511c0-22-11-33-33-33h-255c-20 0-29 26-29 48zm-718 292c13 10 13 24 23 58l133 453h-307c12-27 142-473 151-511zm-633 1026c0 12 3 23 19 23h274c38 0 49-67 64-119 15-50 33-96 45-145h472c2 24 31 108 40 140 11 37 29 124 59 124h279c10 0 24-13 24-19 0-15-49-154-57-174-22-54-39-116-59-173-39-118-80-231-119-349l-205-607c-9-27-15-67-52-67h-297c-33 0-40 37-49 65l-89 261-117 346-176 518c-10 32-56 146-56 176zm-3657-1026c14 11 14 28 22 58l95 321 20 65c5 15 17 51 19 67h-303c1-21 11-43 17-64l18-62 112-385zm-633 1026c0 16 7 23 28 23h265c30 0 36-22 42-47l66-217h473l63 215c8 26 13 49 46 49h269c10 0 23-13 23-19 0-17-47-150-56-175l-59-172-325-956c-9-27-15-67-51-67h-302c-34 0-62 116-74 153l-352 1037c-9 28-18 56-29 85-8 18-27 71-27 91zm-4687-671h-194v-407c122 0 265-17 347 45 83 64 77 261 1 317-39 29-89 45-154 45zm-511-638v1276c0 24 6 56 29 56h255c27 0 33-21 33-47v-354c237 0 404 22 577-118 36-29 85-95 105-141 46-109 46-160 46-275 0-256-208-454-464-454h-552c-23 0-29 33-29 57zm-656 638H312v-407c112 0 282-17 353 49 19 17 32 36 41 63 19 54 22 126 2 181-29 83-107 114-202 114zM0 10815v1323c0 16 8 33 24 33h264c15 0 24-17 24-33v-368c217 0 440 21 589-129 152-153 177-372 107-572a423 423 0 0 0-236-246c-52-22-128-41-200-41H33c-22 0-33 11-33 33zm6473-4120c0 78 6 153 43 217 85 150 251 218 420 218 149 0 206-1 357-35 191-44 382-112 555-197 25-12 85-33 99-52-122 0-280-36-368-70-94-38-172-76-249-139a781 781 0 0 1-221-280 968 968 0 0 1-65-551l29-150c-24 16-114 117-147 155l-92 111c-57 69-167 226-208 307-69 136-153 291-153 466zm378 1219c0 214 180 389 338 508 69 52 146 100 223 141l329 153c27 11 161 61 183 63l-102-130c-33-44-62-94-87-144a809 809 0 0 1 9-798c62-108 167-218 266-292l130-87c8-7 7-3 10-14-88 0-241 10-334 20-181 18-321 49-489 106-205 69-476 227-476 474zM4578 5977c0 115-27 272-75 369a743 743 0 0 1-249 309 1062 1062 0 0 1-592 191c15 21 176 90 199 99 146 60 288 114 447 148 213 46 509 79 692-70 286-232 55-696-91-914l-85-123c-14-20-29-37-45-58l-143-170c-17-19-34-31-51-52-13-17-33-45-54-50 25 51 47 249 47 321zm1229 676c87 0 142-16 209-56 26-16 46-30 69-49 108-86 195-228 256-349 51-103 84-194 119-302l63-238 21-98c6-34 11-71 19-104l-68 74c-42 54-173 158-235 195a895 895 0 0 1-305 120 830 830 0 0 1-617-147l-40-30-40-31c-68-56-90-88-142-142-16-16-18-26-37-39l38 199c51 213 91 346 181 542 40 85 126 221 194 288 82 83 183 167 315 167zM3974 8099c0 115-21 218-60 317-34 85-75 155-126 230l-24 32-79 101c27-2 64-21 90-29a3199 3199 0 0 0 374-160c98-51 275-161 357-237 12-11 19-21 31-31 54-45 29-30 61-62 62-60 155-204 155-322 0-92-7-140-59-219-119-182-401-293-602-334l-411-61-227-10c10 15 66 44 95 66 100 74 178 136 254 237 47 63 89 130 118 208 29 80 53 166 53 273zm-24 2707v1342c0 11 13 23 24 23h264c11 0 24-12 24-23v-1333c0-22-11-33-33-33h-255c-11 0-24 13-24 24zm4999 9v1323c0 16 8 33 24 33h264c11 0 24-12 24-23v-1342c0-11-13-24-24-24h-255c-22 0-33 11-33 33z"/>
  <path d="M5580 5372v24c0 256 374 356 495 98 120-258-216-494-416-293-44 45-79 100-79 171zM3237 8037a260 260 0 1 0 250-250 261 261 0 0 0-250 250zm4068-1847a260 260 0 0 0 440 190 261 261 0 0 0-64-420 261 261 0 0 0-376 230zm-3520-19c0 80 4 110 50 177 114 165 403 130 459-93a263 263 0 0 0-93-269c-195-139-416 22-416 185zm4068 1866c0 274 325 346 455 177 21-27 22-23 39-60a259 259 0 1 0-495-117zm-1479 5906h90l4-137c2-21 5-20 5-42l5-138c-1-24-5-27 9-37 0 73 100 298 104 354h76l28-90c10-32 23-60 33-90l57-184c0 126 14 241 14 364h99c0-130-28-279-28-444h-137c0 49-29 128-45 168-16 42-34 95-43 141l-7 22c-4-49-48-184-66-245-8-27-12-57-19-86h-132c0 41-6 75-9 113l-14 110c-6 55-24 176-24 221zm241-855h90l4-132c1-23 4-22 5-43 3-49 0-140 10-179l4 10 2 11 6 23 12 45c14 49 81 226 84 265 12 0 59 2 66 0 17-4 11-2 16-18l7-30c40-117 63-165 94-289 3-9 1-6 5-14l6-13c0 125 14 241 14 364h99c0-126-28-275-28-444h-137c0 94-90 246-90 331l-46-162c-26-79-26-94-44-169h-132c0 106-47 356-47 444zm-534 902c0 74-50 76-118 76-86 0-78-92-48-109 15-8 67 0 95 0 30 0 71 8 71 33zm-165-269c0-79 127-86 127 5 0 34-34 56-65 54-37-1-62-28-62-59zm160-94c-45-11-25-19-104-19-62 0-113 25-134 69-24 53-1 122 45 134v9c-26 7-38 32-38 62 0 36 14 36 28 56-19 10-30 10-43 28a90 90 0 0 0 46 140c122 41 295-7 295-125 0-159-260-58-260-132 0-12 8-14 14-24 35 8 48 5 90 5 62 0 113-50 113-128 0-20-14-31-19-52 17-9 41-14 66-14 0-24 5-36 5-66-47-11-98-9-104 57zm-1261 71c30-21 29-24 71-24 105 0 103 217-10 217-70 0-57-42-57-71 1-43-4-75-4-122zm-85 113v132h71c24 0-1-18 34-2 88 41 221-14 221-177 0-77-55-156-128-156-53 0-65-1-109 28v-179c-24 0-25 4-51 4-75 0-38-4-38 123l-1 57c2 66 9 15 1 109-2 18 0 42 0 61zm4394-723h85c1-47 62-186 66-232 15 11 8 13 22 54l19 57c10 30 34 90 35 121h85c0-65 108-266 108-326h-85c0 27-18 91-26 115-9 27-30 88-30 116-15-10-7-3-13-25l-8-29c-11-36-50-149-50-177-111 0-69-23-114 113-14 40-27 78-37 123l-32-115c-10-36-27-84-30-121h-99c1 50 104 268 104 326zm-3686-142c0-61 10-139 93-130 2 0 24 4 27 6 12 4 19 8 22 30v165c-38 9 0 14-75 14-39 0-67-46-67-85zm137-179c-43-10-15-14-85-14-87 0-146 93-146 165v33c0 68 57 146 123 146 105 0 74-16 118-28 1 32-5 25 85 18 0-38-5-58-5-98v-350c0-16 4-18 5-33h-99c0 33 4 47 5 75l-1 86zm1824 1020c0-63 26-115 86-117 21-1 40 10 56 13l5 175c0 31-60 29-81 29-39 0-66-58-66-100zm142-160c-75-50-236-10-236 165 0 76 54 161 127 161 104 0 73-18 118-29v24l85-6c-10-119-9-205-9-325 0-58 5-98 5-156-118 0-98-6-95 28l5 138zm3203-695c0-61 26-119 90-117 19 0 37 9 52 13l5 175c0 30-60 28-80 28-41 0-67-55-67-99zm142-161c-117-62-236 26-236 171 0 74 55 155 128 155 68 0 55 3 113-28 6 13 4 5 5 24l85-6c-21-40-5-402-5-481-113 0-100-6-96 29l6 136zm-2244 690h-47l5 70c9 80 4 320 4 412h90v-245c17-4 132-67 132 56l-5 189h90v-236c0-111-124-112-176-87-30 14-29 21-46 26 0-69 5-126 5-189-24 0-26 4-52 4zm-1044-855h-43c0 75 10 122 10 208v137c0 52-5 86-5 137h94c0-42-4-66-4-109v-123c0-24 103-58 127-4 18 41 5 124 5 155l-5 81h95l-5-151c-2-32 20-111-21-154-36-37-108-38-155-18-20 9-23 16-41 25 0-239 19-184-52-184zm-4328 104c49 0 132-8 132 66 0 78-83 80-142 80v-99c0-23-15-47 10-47zm-15-66h-89c0 39 4 59 4 99v246c0 40-4 60-4 99h99l-5-165c123 0 232-41 232-161 0-60-31-87-74-105-58-25-96-13-163-13zm-3118 212h-28l-5-146c89 0 142-11 142 80 0 48-59 66-109 66zm-42-212H14c0 80 5 146 5 222 0 74-5 143-5 222h95v-165c111 0 226-39 226-147 0-40 5-60-29-93-15-16-30-24-54-32-58-18-94-7-157-7zm11122 392h-19c-40 0-71-54-71-94 0-47 5-128 76-128 115 0 105 222 14 222zm-184-104c0 44 14 88 43 117 15 15 25 26 45 36 116 56 257-25 257-148v-33c0-214-345-208-345 28zm-6828 1021c41 0 89 2 123-15 0-49 4-54 5-75-27 0-181 58-231-76-41-108 9-251 176-209 28 7 24 8 28-21 7-64 27-63-96-63-127 0-211 105-219 230-8 124 90 229 214 229zM572 12890H468c0-96 134-109 137-5-15 1-17 5-33 5zm-199 37c0 93 70 170 161 170 115 0 87-9 142-14 0-31 4-43 4-71-29 15-88 15-122 15-47 0-89-40-90-85h108c43 0 67-5 109-5 0-57 6-109-37-152-87-86-275-22-275 142zm3246-37c6-74 50-76 90-76 36 0 47 34 47 71l-137 5zm-89 23v29c0 83 72 155 155 155 81 0 64 4 142-14 1-22 5-41 5-71-45 22-143 26-183-10-18-16-24-35-30-60h109c43 0 66-5 109-5 7-53 6-104-32-148-52-59-174-50-225 5-22 25-50 74-50 119zm8367-23c18-77 37-76 90-76 37 0 47 33 47 71-37 8-92 5-137 5zm-89 33c0 70 31 131 91 159s145 16 206 1c1-15 4-19 5-38 2-22 9-28-4-30-2 0-60 12-81 12-37 0-69 3-98-25-21-22-24-48-30-60 65 0 113 2 176-4 47-5 46 13 46-44 0-45-12-81-36-105-83-86-275-36-275 134zm-289-133c0-20-3-14-4-33-29 0-67 4-90 10 20 87 14 179 14 269 0 26-5 28-5 52h95v-232c0-22 132-80 132 43l-5 189h90v-236c0-110-122-112-181-87-19 8-27 20-46 25zm-8816 0c-2-18-5-12-5-33-29 0-67 4-90 10 3 35 14 60 14 118v123c0 34-4 47-4 80h94v-232c0-25 132-77 132 43 0 40 0 169-9 189h94v-232c0-114-120-117-181-91-19 8-26 20-45 25zm3463 0c-7-12-5-12-5-33-28 0-66 4-89 10 0 26 7 40 9 66 10 126 0 137 0 255h94l-4-241c9-3 137-84 137 66l-5 133c0 23-4 21-5 42h95v-217c0-147-146-132-206-93-13 9-4 8-21 12zm1791 856c0-28 11-48-90-24 0 24 7 49 9 71 10 112 0 144 0 250h95c0-45-5-77-5-118v-123c16-4 143-89 138 85l-10 156h94c0-52-4-85-4-137 0-102 30-198-123-198-55 0-74 31-104 38zm2405-856c0-30 2-37-32-32l-63 9c29 59 14 252 14 321h90v-232c0-25 132-72 132 29v123c0 34-4 47-4 80h94c0-30-4-39-4-71 0-57 9-172-10-213-26-57-118-63-170-37-16 8-30 19-47 23zm-4824 856c0-31 2-38-32-33-15 2-47 8-63 9 29 59 14 252 14 321h90v-231c0-26 132-72 132 28v123c0 34-4 47-4 80h94c0-27-5-32-5-61v-109c0-73 22-165-122-165-57 0-76 31-104 38zm-3643-879c0 40 5 64 5 99-1 83-22 231 94 231 112 0 81-22 127-33 1 15 3 18 5 29 34 0 48-5 81-5 0-58-10-113-10-175 0-56 5-94 5-151l-95 5c0 44 5 72 5 118v127c-69 17-128 50-128-104l5-146-94 5zm5155 1086c0-52 58-56 113-61v80c-40 21-113 37-113-19zm-62-231c-1 19-8 47-9 66 77-6 184-54 184 57-49 0-102 5-137 24-102 52-66 184 28 184 61 0 69-3 114-33l5 28c35 0 51-5 84-5-33-143 51-335-122-335l-95 4c-22 3-33 8-52 10zm303-624c0-53 58-57 113-61v80c-40 21-113 36-113-19zm-62-231c-1 19-8 47-9 66 77-7 184-54 184 57-49 0-102 5-137 23-102 53-66 184 28 184 61 0 69-3 114-33l5 29c35 0 51-5 84-5-14-60-9-143-9-217 0-40-7-67-27-87-40-40-127-35-181-27-22 3-33 8-52 10zm-1417 231c0-53 58-57 113-61v80c-40 21-113 36-113-19zm-62-231c-1 16-6 50-9 66 75-6 184-53 184 57-48 0-105 5-140 25-94 53-66 182 31 182 62 0 69-3 114-33 8 38-1 30 89 23-29-126 19-248-36-303-40-40-127-35-181-27-22 3-33 8-52 10zm-4370 241c0-23-5-47 39-60 23-7 46-6 69-11 0 34 5 47 5 80-53 28-113 24-113-9zm-71-175c22-2 179-45 179 28v29c-237 0-207 153-166 185 52 39 125 23 176-11 0 15 2 18 5 29 34 0 47-5 80-5 0-36-10-71-10-109 0-59 12-111-4-161-27-86-178-71-236-55-22 6-24 23-24 70zm2839 165c0-51 65-57 114-61 0 21 5 69 1 79-6 17-115 41-115-18zm-61-231-6 66c38-9 181-41 181 33v24c-75 0-194 18-194 108v29c0 62 106 103 203 37 0 37-7 30 85 23 0-32-9-58-9-98 0-154 37-266-208-232-22 3-33 8-52 10zm482 1025c0 52 4 58 5 80-119 63-161-49-64-72 20-5 40-3 59-8zm-175-170-6 66c38-8 181-39 181 28v29c-47 0-97 5-133 23-84 43-96 185 48 185 40 0 70-17 94-33 1 14 3 17 5 28 34 0 47-5 80-5 0-31-9-69-9-127 0-55 12-105-6-150-29-68-137-63-202-54-22 3-33 8-52 10zm3936 231c0-51 65-57 113-61 0 33-1 54 5 80-45 24-118 31-118-19zm-61-231-6 66c40-9 115-23 157-5 27 12 23 36 23 62-48 0-98 5-135 25-84 46-89 183 50 183 41 0 70-17 95-33 0 37-7 29 85 22-1-32-10-58-10-98 0-146 41-266-208-232-21 3-33 8-51 10z"/>
  <path d="M5188 13863c0-24-5-44 40-60 22-7 46-6 69-11 4 55 26 99-62 99-21 0-47-9-47-28zm-71-175c57-5 184-56 184 57-273 0-220 208-108 208 61 0 72-6 113-33 0 14 2 17 5 28l85-6c-36-72 21-244-37-302-44-45-157-35-214-23-22 5-26 7-28 71zm3010-751c0 47 5 61 5 80-118 62-164-49-63-72 16-4 40-4 58-8zm-180-104c37-9 180-39 180 28v29c-47 0-97 5-133 23-89 45-88 184 43 184 47 0 71-14 99-33 1 15 2 18 5 29 34 0 47-5 80-5 0-37-9-69-9-118 0-149 31-217-156-217-25 0-65 3-85 9-21 7-24 24-24 71zm1720 175c0-23-4-47 40-60 23-7 46-6 69-11l6 75c0 21-115 42-115-4zm-71-175c19-2 28-7 48-9 55-6 150-21 132 66-53 0-91 5-129 22-87 37-99 185 39 185 49 0 70-13 99-33 1 15 2 18 5 29 34 0 47-5 80-5 0-35-9-69-9-104 0-160 32-231-151-231-29 0-61 4-85 9-23 5-29 10-29 71zm3119 165c0-53 58-57 113-61 0 17 3 66-2 78-9 22-111 40-111-17zm-62-231c0 23-4 36-4 66 50-12 179-42 179 42v15c-267 0-227 207-99 207 74 0 74-20 104-28 14 30-12 26 90 18-4-48-10-32-10-103 0-73 12-161-27-200-40-40-127-35-181-27-22 3-33 8-52 10zm-7876 170c0 34 5 52 5 80-91 48-140-4-106-49 20-29 64-23 101-31zm-180-104c37-9 180-39 180 28v29c-262 0-220 207-104 207 58 0 73-6 113-33 1 15 2 18 5 29 34 0 47-5 80-5 0-35-9-70-9-109 0-152 34-226-156-226-25 0-65 3-85 9-21 7-24 24-24 71zm-2249 161c0-50 80-54 114-57 0 60 17 99-62 99-31 0-52-10-52-42zm-61-227c0 27-5 36-5 66 39-9 115-24 156-5 27 12 24 36 24 62-73 0-194 17-194 108v29c0 48 55 70 109 70 45 0 65-17 94-33 0 37-7 30 85 23 0-28-10-43-9-103v-113c1-127-104-129-209-114-21 3-32 8-51 10zm-1281 80c0 82 68 92 120 117 66 31 44 67-6 67-129 0-108-36-116 17-4 26-11 34 6 41 20 8 237 47 237-100 0-102-160-94-160-147 0-44 124-14 137-14l10-66c-27-12-228-37-228 85zm7740-5c0 49 12 75 72 103 34 15 80 25 88 63-29 44-117 18-155 9-5 10-13 57-15 71 61 5 251 45 251-94 0-114-161-86-161-156 0-38 123-10 137-10 0-25 8-44 10-66-75-17-227-24-227 80zm-468 10c0 47 35 73 66 89 34 18 95 29 95 67 0 47-141 13-156 9-2 25-10 42-10 71 55 5 28 9 118 9 58 0 128-30 128-85v-23c0-106-161-91-161-147 0-39 108-23 137-9 2-75 57-80-104-80-61 0-113 37-113 99zm3893-10c0 51 11 72 73 103 34 17 79 24 88 63-33 48-134 11-161 9 0 29-7 46-9 71 62 5 39 9 127 9 126 0 174-132 57-193-53-28-94-23-94-66 0-38 119-10 137-10 0-25 7-44 9-66-74-17-227-24-227 80zm-10489-170-5 95h-47v71c24 0 21-5 43-5 0 59-6 173 18 217 40 71 126 41 156 38l6-66c-18 8-64 9-77-4-26-25-18-143-18-185 33 0 49 5 85 5v-71h-85c0-21 4-23 5-47l-1-57c-21 5-54 9-80 9zm2268-66h-47l9 383c0 40-4 60-4 99h94l-6-255c-1-82 6-149 6-232-24 0-26 5-52 5zm468 161c5 10 47 398-29 425 8 14 20 35 24 52 109-9 104-127 104-194v-222c0-30 4-49 5-71-40 0-70 7-104 10zm5684-81v359c0 24-4 22-5 43h99c0-85-4-153-4-236 0-74 4-133 4-208h-99c1 21 5 19 5 42zm-5084 114c0-32 20-59-90-33 0 22 14 89 14 175 0 55-4 91-4 146h89v-198c0-74 98-48 118-48 2-23 14-57 19-80-21-2-66-25-111 7-23 15-15 24-35 31zm-4191 0c0-24-1-25-5-43-32 0-61 7-90 10 28 57 16 252 13 321h91v-203c0-67 98-43 118-43 2-23 14-57 19-80-28-2-13-9-61-9s-59 29-85 47zm6875 822c1 17 7 45 8 62 6 56 1 191 1 259h90v-113c-4-70-8-14 0-100v-118c-34 0-69 9-99 10zm4767-855c1 32 9 59 9 99 0 53 6 177-4 222h94c0-61-4-105-4-165 0-61 4-105 4-166-34 0-68 9-99 10zm-3893 0c24 50 9 261 9 321h95c-1-21-5-19-5-43v-255c0-16 3-18 5-33-38 0-72 9-104 10zm-4153-104c0 90 113 60 113 4 0-82-113-68-113-4zm3283 855c0 88 114 64 114 0 0-73-114-66-114 0zm874-851c0 70 114 74 114-9 0-67-114-62-114 9zm3894-4c0 49 18 56 61 56 54 0 83-108-9-108-28 0-52 24-52 52z"/>
</svg>
